[
{
  "model": "symposion_proposals.proposalkind",
  "pk": 1,
  "fields": {
    "section": 1,
    "name": "Talk",
    "slug": "talk"
  }
},
{
  "model": "symposion_proposals.proposalkind",
  "pk": 2,
  "fields": {
    "section": 1,
    "name": "Tutorial",
    "slug": "tutorial"
  }
}
]
